"problem" "backend" "time" "optimal"
AFIRO cuda 0.0589219 -464.753143
AFIRO cuda 0.058467 -464.753143
AFIRO cuda 0.0589131 -464.753143
AFIRO cuda 0.058397 -464.753143
AFIRO cuda 0.0585769 -464.753143
AFIRO cuda 0.0600691 -464.753143
AFIRO cuda 0.0583821 -464.753143
AFIRO cuda 0.0582578 -464.753143
AFIRO cuda 0.0585445 -464.753143
AFIRO cuda 0.0584923 -464.753143
AFIRO cuda 0.0587086 -464.753143
AFIRO cuda 0.0601786 -464.753143
AFIRO cuda 0.0586202 -464.753143
AFIRO cuda 0.0590673 -464.753143
AFIRO cuda 0.0589392 -464.753143
AFIRO cuda 0.0585366 -464.753143
AFIRO cuda 0.0583374 -464.753143
AFIRO cuda 0.0586543 -464.753143
AFIRO cuda 0.0586796 -464.753143
AFIRO cuda 0.0587515 -464.753143
AFIRO cuda 0.0583242 -464.753143
AFIRO cuda 0.0587156 -464.753143
AFIRO cuda 0.0608289 -464.753143
AFIRO cuda 0.0584815 -464.753143
AFIRO cuda 0.0590026 -464.753143
AFIRO cuda 0.0597937 -464.753143
AFIRO cuda 0.0598116 -464.753143
AFIRO cuda 0.0583684 -464.753143
AFIRO cuda 0.0585403 -464.753143
AFIRO cuda 0.0583479 -464.753143
AFIRO cuda 0.0602689 -464.753143
AFIRO cuda 0.0583002 -464.753143
AFIRO cuda 0.0587442 -464.753143
AFIRO cuda 0.0590722 -464.753143
AFIRO cuda 0.0588604 -464.753143
AFIRO cuda 0.05886 -464.753143
AFIRO cuda 0.0589137 -464.753143
AFIRO cuda 0.0585925 -464.753143
AFIRO cuda 0.0587774 -464.753143
AFIRO cuda 0.0583906 -464.753143
AFIRO cublas 0.028175 -464.753143
AFIRO cublas 0.028245 -464.753143
AFIRO cublas 0.0283028 -464.753143
AFIRO cublas 0.0281148 -464.753143
AFIRO cublas 0.0281636 -464.753143
AFIRO cublas 0.0283523 -464.753143
AFIRO cublas 0.0283208 -464.753143
AFIRO cublas 0.0285313 -464.753143
AFIRO cublas 0.028373 -464.753143
AFIRO cublas 0.0281919 -464.753143
AFIRO cublas 0.0280834 -464.753143
AFIRO cublas 0.0282758 -464.753143
AFIRO cublas 0.0283664 -464.753143
AFIRO cublas 0.0281021 -464.753143
AFIRO cublas 0.0284604 -464.753143
AFIRO cublas 0.0284867 -464.753143
AFIRO cublas 0.0282665 -464.753143
AFIRO cublas 0.0282448 -464.753143
AFIRO cublas 0.0280432 -464.753143
AFIRO cublas 0.0280251 -464.753143
AFIRO cublas 0.0283542 -464.753143
AFIRO cublas 0.0280375 -464.753143
AFIRO cublas 0.0280055 -464.753143
AFIRO cublas 0.0280367 -464.753143
AFIRO cublas 0.0281284 -464.753143
AFIRO cublas 0.0281979 -464.753143
AFIRO cublas 0.02813 -464.753143
AFIRO cublas 0.028301 -464.753143
AFIRO cublas 0.0282879 -464.753143
AFIRO cublas 0.0287537 -464.753143
AFIRO cublas 0.0282699 -464.753143
AFIRO cublas 0.0281977 -464.753143
AFIRO cublas 0.0285202 -464.753143
AFIRO cublas 0.0282817 -464.753143
AFIRO cublas 0.0283894 -464.753143
AFIRO cublas 0.0283507 -464.753143
AFIRO cublas 0.0281515 -464.753143
AFIRO cublas 0.0281667 -464.753143
AFIRO cublas 0.0283458 -464.753143
AFIRO cublas 0.0281544 -464.753143
BLEND cuda 2.7169 -30.812150
BLEND cuda 2.70812 -30.812150
BLEND cuda 2.7023 -30.812150
BLEND cuda 2.71316 -30.812150
BLEND cuda 2.71614 -30.812150
BLEND cuda 2.70771 -30.812150
BLEND cuda 2.74271 -30.812150
BLEND cuda 2.70117 -30.812150
BLEND cuda 2.78428 -30.812150
BLEND cuda 2.73452 -30.812150
BLEND cuda 2.70111 -30.812150
BLEND cuda 2.69828 -30.812150
BLEND cuda 2.66947 -30.812150
BLEND cuda 2.67149 -30.812150
BLEND cuda 2.65783 -30.812150
BLEND cuda 2.66191 -30.812150
BLEND cuda 2.65561 -30.812150
BLEND cuda 2.65475 -30.812150
BLEND cuda 2.66345 -30.812150
BLEND cuda 2.66147 -30.812150
BLEND cuda 2.65095 -30.812150
BLEND cuda 2.65094 -30.812150
BLEND cuda 2.66256 -30.812150
BLEND cuda 2.65772 -30.812150
BLEND cuda 2.65633 -30.812150
BLEND cuda 2.65632 -30.812150
BLEND cuda 2.65817 -30.812150
BLEND cuda 2.68129 -30.812150
BLEND cuda 2.6708 -30.812150
BLEND cuda 2.6652 -30.812150
BLEND cuda 2.65572 -30.812150
BLEND cuda 2.71872 -30.812150
BLEND cuda 2.66647 -30.812150
BLEND cuda 2.66236 -30.812150
BLEND cuda 2.6728 -30.812150
BLEND cuda 2.65473 -30.812150
BLEND cuda 2.65336 -30.812150
BLEND cuda 2.65551 -30.812150
BLEND cuda 2.64684 -30.812150
BLEND cuda 2.66355 -30.812150
BLEND cublas 0.931272 -30.812150
BLEND cublas 0.779555 -30.812150
BLEND cublas 0.782964 -30.812150
BLEND cublas 0.781652 -30.812150
BLEND cublas 0.780381 -30.812150
BLEND cublas 0.781948 -30.812150
BLEND cublas 0.781254 -30.812150
BLEND cublas 0.78124 -30.812150
BLEND cublas 0.779922 -30.812150
BLEND cublas 0.783424 -30.812150
BLEND cublas 0.78246 -30.812150
BLEND cublas 0.778824 -30.812150
BLEND cublas 0.779631 -30.812150
BLEND cublas 0.787722 -30.812150
BLEND cublas 0.779906 -30.812150
BLEND cublas 0.780645 -30.812150
BLEND cublas 0.781715 -30.812150
BLEND cublas 0.778652 -30.812150
BLEND cublas 0.779795 -30.812150
BLEND cublas 0.780507 -30.812150
BLEND cublas 0.780856 -30.812150
BLEND cublas 0.780762 -30.812150
BLEND cublas 0.780281 -30.812150
BLEND cublas 0.780049 -30.812150
BLEND cublas 0.780548 -30.812150
BLEND cublas 0.779859 -30.812150
BLEND cublas 0.778868 -30.812150
BLEND cublas 0.780535 -30.812150
BLEND cublas 0.780518 -30.812150
BLEND cublas 0.779989 -30.812150
BLEND cublas 0.780335 -30.812150
BLEND cublas 0.781357 -30.812150
BLEND cublas 0.779041 -30.812150
BLEND cublas 0.789696 -30.812150
BLEND cublas 0.780078 -30.812150
BLEND cublas 0.779327 -30.812150
BLEND cublas 0.780103 -30.812150
BLEND cublas 0.781279 -30.812150
BLEND cublas 0.780556 -30.812150
BLEND cublas 0.780123 -30.812150
SC105 cuda 1.10428 -52.202061
SC105 cuda 1.16338 -52.202061
SC105 cuda 1.16958 -52.202061
SC105 cuda 1.16672 -52.202061
SC105 cuda 1.16774 -52.202061
SC105 cuda 1.16803 -52.202061
SC105 cuda 1.16671 -52.202061
SC105 cuda 1.16823 -52.202061
SC105 cuda 1.17495 -52.202061
SC105 cuda 1.1753 -52.202061
SC105 cuda 1.17271 -52.202061
SC105 cuda 1.16524 -52.202061
SC105 cuda 1.16362 -52.202061
SC105 cuda 1.16804 -52.202061
SC105 cuda 1.23911 -52.202061
SC105 cuda 1.22652 -52.202061
SC105 cuda 1.22854 -52.202061
SC105 cuda 1.22666 -52.202061
SC105 cuda 1.23291 -52.202061
SC105 cuda 1.22787 -52.202061
SC105 cuda 1.22476 -52.202061
SC105 cuda 1.22081 -52.202061
SC105 cuda 1.22898 -52.202061
SC105 cuda 1.21918 -52.202061
SC105 cuda 1.22739 -52.202061
SC105 cuda 1.22733 -52.202061
SC105 cuda 1.22644 -52.202061
SC105 cuda 1.25538 -52.202061
SC105 cuda 1.22529 -52.202061
SC105 cuda 1.25285 -52.202061
SC105 cuda 1.22266 -52.202061
SC105 cuda 1.22489 -52.202061
SC105 cuda 1.2242 -52.202061
SC105 cuda 1.22582 -52.202061
SC105 cuda 1.2299 -52.202061
SC105 cuda 1.22253 -52.202061
SC105 cuda 1.25486 -52.202061
SC105 cuda 1.22593 -52.202061
SC105 cuda 1.22088 -52.202061
SC105 cuda 1.22621 -52.202061
SC105 cublas 0.444492 -52.202061
SC105 cublas 0.396306 -52.202061
SC105 cublas 0.396664 -52.202061
SC105 cublas 0.397054 -52.202061
SC105 cublas 0.396383 -52.202061
SC105 cublas 0.396432 -52.202061
SC105 cublas 0.396837 -52.202061
SC105 cublas 0.39767 -52.202061
SC105 cublas 0.396254 -52.202061
SC105 cublas 0.396166 -52.202061
SC105 cublas 0.396096 -52.202061
SC105 cublas 0.396376 -52.202061
SC105 cublas 0.396199 -52.202061
SC105 cublas 0.396052 -52.202061
SC105 cublas 0.396163 -52.202061
SC105 cublas 0.396196 -52.202061
SC105 cublas 0.396484 -52.202061
SC105 cublas 0.396166 -52.202061
SC105 cublas 0.396189 -52.202061
SC105 cublas 0.396222 -52.202061
SC105 cublas 0.396221 -52.202061
SC105 cublas 0.396255 -52.202061
SC105 cublas 0.396203 -52.202061
SC105 cublas 0.396645 -52.202061
SC105 cublas 0.396316 -52.202061
SC105 cublas 0.396752 -52.202061
SC105 cublas 0.396236 -52.202061
SC105 cublas 0.396323 -52.202061
SC105 cublas 0.395951 -52.202061
SC105 cublas 0.39651 -52.202061
SC105 cublas 0.396535 -52.202061
SC105 cublas 0.396186 -52.202061
SC105 cublas 0.396315 -52.202061
SC105 cublas 0.395976 -52.202061
SC105 cublas 0.396284 -52.202061
SC105 cublas 0.396541 -52.202061
SC105 cublas 0.396131 -52.202061
SC105 cublas 0.395855 -52.202061
SC105 cublas 0.396081 -52.202061
SC105 cublas 0.399039 -52.202061
SC205 cuda 8.03224 -52.202061
SC205 cuda 8.01644 -52.202061
SC205 cuda 8.28779 -52.202061
SC205 cuda 7.9922 -52.202061
SC205 cuda 8.18921 -52.202061
SC205 cuda 8.00552 -52.202061
SC205 cuda 8.01474 -52.202061
SC205 cuda 8.00868 -52.202061
SC205 cuda 8.33079 -52.202061
SC205 cuda 8.20399 -52.202061
SC205 cuda 8.0114 -52.202061
SC205 cuda 8.02845 -52.202061
SC205 cuda 8.00445 -52.202061
SC205 cuda 8.0488 -52.202061
SC205 cuda 8.01281 -52.202061
SC205 cuda 8.00357 -52.202061
SC205 cuda 8.38093 -52.202061
SC205 cuda 8.03513 -52.202061
SC205 cuda 8.00746 -52.202061
SC205 cuda 8.13563 -52.202061
SC205 cuda 8.02215 -52.202061
SC205 cuda 8.03886 -52.202061
SC205 cuda 8.00115 -52.202061
SC205 cuda 8.02482 -52.202061
SC205 cuda 8.00983 -52.202061
SC205 cuda 8.01418 -52.202061
SC205 cuda 7.99248 -52.202061
SC205 cuda 8.01591 -52.202061
SC205 cuda 7.98746 -52.202061
SC205 cuda 8.02756 -52.202061
SC205 cuda 8.0214 -52.202061
SC205 cuda 8.0098 -52.202061
SC205 cuda 8.00777 -52.202061
SC205 cuda 7.99971 -52.202061
SC205 cuda 8.00514 -52.202061
SC205 cuda 8.03223 -52.202061
SC205 cuda 8.19401 -52.202061
SC205 cuda 7.999 -52.202061
SC205 cuda 7.99097 -52.202061
SC205 cuda 7.97153 -52.202061
SC205 cublas 1.79598 -52.202061
SC205 cublas 1.80103 -52.202061
SC205 cublas 1.79376 -52.202061
SC205 cublas 1.79462 -52.202061
SC205 cublas 1.79463 -52.202061
SC205 cublas 1.79667 -52.202061
SC205 cublas 1.79449 -52.202061
SC205 cublas 1.79348 -52.202061
SC205 cublas 1.79504 -52.202061
SC205 cublas 1.80154 -52.202061
SC205 cublas 1.79433 -52.202061
SC205 cublas 1.79358 -52.202061
SC205 cublas 1.79469 -52.202061
SC205 cublas 1.79394 -52.202061
SC205 cublas 1.79321 -52.202061
SC205 cublas 1.79563 -52.202061
SC205 cublas 1.80071 -52.202061
SC205 cublas 1.79566 -52.202061
SC205 cublas 1.79456 -52.202061
SC205 cublas 1.79366 -52.202061
SC205 cublas 1.79597 -52.202061
SC205 cublas 1.7938 -52.202061
SC205 cublas 1.79364 -52.202061
SC205 cublas 1.79371 -52.202061
SC205 cublas 1.79407 -52.202061
SC205 cublas 1.79759 -52.202061
SC205 cublas 1.79523 -52.202061
SC205 cublas 1.79444 -52.202061
SC205 cublas 1.79358 -52.202061
SC205 cublas 1.80067 -52.202061
SC205 cublas 1.79486 -52.202061
SC205 cublas 1.79538 -52.202061
SC205 cublas 1.79528 -52.202061
SC205 cublas 1.79499 -52.202061
SC205 cublas 1.79396 -52.202061
SC205 cublas 1.79452 -52.202061
SC205 cublas 1.79546 -52.202061
SC205 cublas 1.79364 -52.202061
SC205 cublas 1.79526 -52.202061
SC205 cublas 1.79363 -52.202061
SC50A cuda 0.205631 -64.575077
SC50A cuda 0.23113 -64.575077
SC50A cuda 0.227891 -64.575077
SC50A cuda 0.245628 -64.575077
SC50A cuda 0.243738 -64.575077
SC50A cuda 0.243685 -64.575077
SC50A cuda 0.256078 -64.575077
SC50A cuda 0.258633 -64.575077
SC50A cuda 0.258909 -64.575077
SC50A cuda 0.259406 -64.575077
SC50A cuda 0.265388 -64.575077
SC50A cuda 0.256902 -64.575077
SC50A cuda 0.25947 -64.575077
SC50A cuda 0.258524 -64.575077
SC50A cuda 0.258479 -64.575077
SC50A cuda 0.257832 -64.575077
SC50A cuda 0.258549 -64.575077
SC50A cuda 0.258683 -64.575077
SC50A cuda 0.258884 -64.575077
SC50A cuda 0.258053 -64.575077
SC50A cuda 0.258562 -64.575077
SC50A cuda 0.258897 -64.575077
SC50A cuda 0.259179 -64.575077
SC50A cuda 0.258164 -64.575077
SC50A cuda 0.260034 -64.575077
SC50A cuda 0.257964 -64.575077
SC50A cuda 0.259661 -64.575077
SC50A cuda 0.261507 -64.575077
SC50A cuda 0.259336 -64.575077
SC50A cuda 0.259641 -64.575077
SC50A cuda 0.258879 -64.575077
SC50A cuda 0.25897 -64.575077
SC50A cuda 0.258539 -64.575077
SC50A cuda 0.258789 -64.575077
SC50A cuda 0.257925 -64.575077
SC50A cuda 0.258144 -64.575077
SC50A cuda 0.264938 -64.575077
SC50A cuda 0.258668 -64.575077
SC50A cuda 0.258787 -64.575077
SC50A cuda 0.258767 -64.575077
SC50A cublas 0.109104 -64.575077
SC50A cublas 0.108901 -64.575077
SC50A cublas 0.109342 -64.575077
SC50A cublas 0.109304 -64.575077
SC50A cublas 0.108996 -64.575077
SC50A cublas 0.109096 -64.575077
SC50A cublas 0.109671 -64.575077
SC50A cublas 0.10924 -64.575077
SC50A cublas 0.109418 -64.575077
SC50A cublas 0.109528 -64.575077
SC50A cublas 0.109009 -64.575077
SC50A cublas 0.109341 -64.575077
SC50A cublas 0.109105 -64.575077
SC50A cublas 0.109124 -64.575077
SC50A cublas 0.109253 -64.575077
SC50A cublas 0.109136 -64.575077
SC50A cublas 0.108949 -64.575077
SC50A cublas 0.109129 -64.575077
SC50A cublas 0.109056 -64.575077
SC50A cublas 0.108997 -64.575077
SC50A cublas 0.109069 -64.575077
SC50A cublas 0.109172 -64.575077
SC50A cublas 0.109294 -64.575077
SC50A cublas 0.10903 -64.575077
SC50A cublas 0.109179 -64.575077
SC50A cublas 0.109222 -64.575077
SC50A cublas 0.108956 -64.575077
SC50A cublas 0.108943 -64.575077
SC50A cublas 0.109093 -64.575077
SC50A cublas 0.105123 -64.575077
SC50A cublas 0.109139 -64.575077
SC50A cublas 0.105091 -64.575077
SC50A cublas 0.105556 -64.575077
SC50A cublas 0.105519 -64.575077
SC50A cublas 0.105113 -64.575077
SC50A cublas 0.105159 -64.575077
SC50A cublas 0.105853 -64.575077
SC50A cublas 0.105158 -64.575077
SC50A cublas 0.104904 -64.575077
SC50A cublas 0.105272 -64.575077
SC50B cuda 0.279678 -70.000000
SC50B cuda 0.280586 -70.000000
SC50B cuda 0.279454 -70.000000
SC50B cuda 0.280918 -70.000000
SC50B cuda 0.279287 -70.000000
SC50B cuda 0.279703 -70.000000
SC50B cuda 0.282143 -70.000000
SC50B cuda 0.278971 -70.000000
SC50B cuda 0.278428 -70.000000
SC50B cuda 0.281596 -70.000000
SC50B cuda 0.278699 -70.000000
SC50B cuda 0.277125 -70.000000
SC50B cuda 0.27979 -70.000000
SC50B cuda 0.279011 -70.000000
SC50B cuda 0.279755 -70.000000
SC50B cuda 0.279809 -70.000000
SC50B cuda 0.2791 -70.000000
SC50B cuda 0.286472 -70.000000
SC50B cuda 0.279961 -70.000000
SC50B cuda 0.279508 -70.000000
SC50B cuda 0.286522 -70.000000
SC50B cuda 0.288487 -70.000000
SC50B cuda 0.287177 -70.000000
SC50B cuda 0.28798 -70.000000
SC50B cuda 0.288196 -70.000000
SC50B cuda 0.287831 -70.000000
SC50B cuda 0.288858 -70.000000
SC50B cuda 0.288487 -70.000000
SC50B cuda 0.28836 -70.000000
SC50B cuda 0.288082 -70.000000
SC50B cuda 0.288442 -70.000000
SC50B cuda 0.288002 -70.000000
SC50B cuda 0.288347 -70.000000
SC50B cuda 0.289324 -70.000000
SC50B cuda 0.294469 -70.000000
SC50B cuda 0.288219 -70.000000
SC50B cuda 0.286944 -70.000000
SC50B cuda 0.287529 -70.000000
SC50B cuda 0.287519 -70.000000
SC50B cuda 0.287149 -70.000000
SC50B cublas 0.126314 -70.000000
SC50B cublas 0.126456 -70.000000
SC50B cublas 0.126169 -70.000000
SC50B cublas 0.11938 -70.000000
SC50B cublas 0.119082 -70.000000
SC50B cublas 0.115033 -70.000000
SC50B cublas 0.115211 -70.000000
SC50B cublas 0.114969 -70.000000
SC50B cublas 0.114817 -70.000000
SC50B cublas 0.11486 -70.000000
SC50B cublas 0.114851 -70.000000
SC50B cublas 0.125883 -70.000000
SC50B cublas 0.114844 -70.000000
SC50B cublas 0.114719 -70.000000
SC50B cublas 0.114987 -70.000000
SC50B cublas 0.115421 -70.000000
SC50B cublas 0.114619 -70.000000
SC50B cublas 0.112736 -70.000000
SC50B cublas 0.112511 -70.000000
SC50B cublas 0.112806 -70.000000
SC50B cublas 0.1128 -70.000000
SC50B cublas 0.112617 -70.000000
SC50B cublas 0.112715 -70.000000
SC50B cublas 0.112982 -70.000000
SC50B cublas 0.113079 -70.000000
SC50B cublas 0.11266 -70.000000
SC50B cublas 0.112692 -70.000000
SC50B cublas 0.112512 -70.000000
SC50B cublas 0.112656 -70.000000
SC50B cublas 0.112829 -70.000000
SC50B cublas 0.112711 -70.000000
SC50B cublas 0.112799 -70.000000
SC50B cublas 0.11269 -70.000000
SC50B cublas 0.112874 -70.000000
SC50B cublas 0.112773 -70.000000
SC50B cublas 0.11286 -70.000000
SC50B cublas 0.112724 -70.000000
SC50B cublas 0.112708 -70.000000
SC50B cublas 0.112819 -70.000000
SC50B cublas 0.112543 -70.000000
