* maximize 3*x1 + x2 + 2*x3
* subject to 
* x1 + x2 + 3*x3 <= 30
* 2*x1 + 2*x2 + 5*x3 <= 24
* 4*x1 + x2 + 2*x3 <= 36
*
* solution x1 = 8, x2 = 4, x3 = 0 full slack form: (8,4,0,18,0,0)
* optimal value = 28
*
NAME          CORMEN1
OBJSENSE MAX
ROWS
 N  OBJ
 L  C1
 L  C2
 L  C3
COLUMNS
    X1        OBJ                  3   C1                   1
    X1        C2                   2   C3                   4
    X2        OBJ                  1   C1                   1
    X2        C2                   2   C3                   1
    X3        OBJ                  2   C1                   3
    X3        C2                   5   C3                   2
RHS
    RHS1      C1                  30   C2                  24
    RHS1      C3                  36
ENDATA
